PCA
…
Výpočet

Code

# we center and scale our data and create a covariance matrix
data_matrix = Matrix(df)'
N, M = size(data_matrix)
centered_scaled_data = (data_matrix .- mean(data_matrix, dims=2)) ./ std(data_matrix, dims=2)
cov_data = centered_scaled_data * centered_scaled_data' / (M-1)
df_cov = DataFrame(cov_data, column_names)
insertcols!(df_cov, 1, :Names => column_names)

show(df_cov)

33×34 DataFrame
 Row │ Names       instr       class       nb.repeat   attendance  difficulty  ⋯
     │ String      Float64     Float64     Float64     Float64     Float64     ⋯
─────┼──────────────────────────────────────────────────────────────────────────
   1 │ instr        1.0        -0.0398711   0.112763   -0.107231   -0.0583679  ⋯
   2 │ class       -0.0398711   1.0         0.0915266  -0.0163123  -0.0448988
   3 │ nb.repeat    0.112763    0.0915266   1.0        -0.0780859   0.110493
   4 │ attendance  -0.107231   -0.0163123  -0.0780859   1.0         0.436792
   5 │ difficulty  -0.0583679  -0.0448988   0.110493    0.436792    1.0        ⋯
   6 │ Q1          -0.128931   -0.0295424  -0.0247084   0.105266    0.0521197
   7 │ Q2          -0.12707    -0.0332738  -0.0417067   0.149258    0.0650311
   8 │ Q3          -0.108949   -0.0215341  -0.0357038   0.178393    0.0714574
   9 │ Q4          -0.113222   -0.0301647  -0.0336127   0.138108    0.0621711  ⋯
  10 │ Q5          -0.135606   -0.036584   -0.0317702   0.149747    0.0641809
  11 │ Q6          -0.0983193  -0.045972   -0.0269181   0.143705    0.052746
  ⋮  │     ⋮           ⋮           ⋮           ⋮           ⋮           ⋮       ⋱
  24 │ Q19         -0.112485   -0.0187266  -0.0455676   0.190694    0.0800165
  25 │ Q20         -0.0868314  -0.0312343  -0.0426243   0.195166    0.0910509  ⋯
  26 │ Q21         -0.0781014  -0.022758   -0.0462619   0.204802    0.0956275
  27 │ Q22         -0.0805862  -0.0165528  -0.0454635   0.20774     0.0995433
  28 │ Q23         -0.118889   -0.025983   -0.041233    0.177814    0.0753171
  29 │ Q24         -0.12888    -0.0367118  -0.0336183   0.163546    0.0726086  ⋯
  30 │ Q25         -0.0835633  -0.0278161  -0.0499182   0.204435    0.0996824
  31 │ Q26         -0.103499   -0.0294907  -0.0355184   0.172695    0.0644562
  32 │ Q27         -0.107664   -0.0225762  -0.0324567   0.144687    0.0593698
  33 │ Q28         -0.0816723  -0.0373642  -0.0448999   0.20015     0.0908763  ⋯
                                                  28 columns and 12 rows omitted
…
